# Blender v2.79 (sub 0) OBJ File: 'door.blend'
# www.blender.org
mtllib door.mtl
o Cube_Cube.001
v -0.178203 0.002010 1.000000
v -0.178203 3.946074 1.000000
v -0.178203 0.002010 -1.000000
v -0.178203 3.946074 -1.000000
v 0.178203 0.002010 1.000000
v 0.178203 3.946074 1.000000
v 0.178203 0.002010 -1.000000
v 0.178203 3.946074 -1.000000
v 0.178083 1.766265 -0.664177
v 0.178083 1.895263 -0.664177
v 0.178083 1.766265 -0.793174
v 0.178083 1.895263 -0.793174
v 0.307080 1.766265 -0.664177
v 0.307080 1.895263 -0.664177
v 0.307080 1.766265 -0.793174
v 0.307080 1.895263 -0.793174
vt 0.000219 0.666448
vt 0.000219 0.333552
vt 0.333115 0.333552
vt 0.333115 0.666448
vt 0.333552 0.666448
vt 0.333552 0.333552
vt 0.666448 0.333552
vt 0.666448 0.666448
vt 0.999781 0.000219
vt 0.999781 0.333115
vt 0.666885 0.333115
vt 0.666885 0.000219
vt 0.333115 0.666885
vt 0.333115 0.999781
vt 0.000219 0.999781
vt 0.000219 0.666885
vt 0.333115 0.333115
vt 0.000219 0.333115
vt 0.000219 0.000219
vt 0.333115 0.000219
vt 0.666448 0.333115
vt 0.333552 0.333115
vt 0.333552 0.000219
vt 0.666448 0.000219
vt 0.575403 0.689099
vt 0.575403 0.678211
vt 0.695890 0.678211
vt 0.695890 0.689099
vt 0.688357 0.333552
vt 0.688357 0.344440
vt 0.666885 0.344440
vt 0.666885 0.333552
vt 0.695890 0.666885
vt 0.695890 0.677773
vt 0.575403 0.677773
vt 0.575403 0.666885
vt 0.454477 0.666885
vt 0.574965 0.666885
vt 0.574965 0.688357
vt 0.454477 0.688357
vt 0.454040 0.688357
vt 0.333552 0.688357
vt 0.333552 0.666885
vt 0.454040 0.666885
vn -1.0000 0.0000 0.0000
vn 0.0000 0.0000 -1.0000
vn 1.0000 0.0000 0.0000
vn 0.0000 0.0000 1.0000
vn 0.0000 -1.0000 0.0000
vn 0.0000 1.0000 0.0000
usemtl None
s off
f 1/1/1 2/2/1 4/3/1 3/4/1
f 3/5/2 4/6/2 8/7/2 7/8/2
f 7/9/3 8/10/3 6/11/3 5/12/3
f 5/13/4 6/14/4 2/15/4 1/16/4
f 3/17/5 7/18/5 5/19/5 1/20/5
f 8/21/6 4/22/6 2/23/6 6/24/6
f 11/25/2 12/26/2 16/27/2 15/28/2
f 15/29/3 16/30/3 14/31/3 13/32/3
f 13/33/4 14/34/4 10/35/4 9/36/4
f 11/37/5 15/38/5 13/39/5 9/40/5
f 16/41/6 12/42/6 10/43/6 14/44/6
